{
    "1354799444" : {
        "GLOBAL" : {
            "casetypes" : {
                "ban" : {
                    "default_setting" : true,
                    "image" : "\ud83d\udd28",
                    "case_str" : "Ban",
                    "audit_type" : "ban"
                },
                "kick" : {
                    "default_setting" : true,
                    "image" : "\ud83d\udc62",
                    "case_str" : "Kick",
                    "audit_type" : "kick"
                },
                "hackban" : {
                    "default_setting" : true,
                    "image" : "\ud83d\udc64\ud83d\udd28",
                    "case_str" : "Hackban",
                    "audit_type" : "ban"
                },
                "tempban" : {
                    "default_setting" : true,
                    "image" : "\u23f0\ud83d\udd28",
                    "case_str" : "Tempban",
                    "audit_type" : "ban"
                },
                "softban" : {
                    "default_setting" : true,
                    "image" : "\ud83d\udca8\ud83d\udd28",
                    "case_str" : "Softban",
                    "audit_type" : "ban"
                },
                "unban" : {
                    "default_setting" : true,
                    "image" : "\ud83d\udd4a",
                    "case_str" : "Unban",
                    "audit_type" : "unban"
                },
                "voiceban" : {
                    "default_setting" : true,
                    "image" : "\ud83d\udd07",
                    "case_str" : "Voice Ban",
                    "audit_type" : "member_update"
                },
                "voiceunban" : {
                    "default_setting" : true,
                    "image" : "\ud83d\udd08",
                    "case_str" : "Voice Unban",
                    "audit_type" : "member_update"
                },
                "vmute" : {
                    "default_setting" : false,
                    "image" : "\ud83d\udd07",
                    "case_str" : "Voice Mute",
                    "audit_type" : "overwrite_update"
                },
                "cmute" : {
                    "default_setting" : false,
                    "image" : "\ud83d\udd07",
                    "case_str" : "Channel Mute",
                    "audit_type" : "overwrite_update"
                },
                "smute" : {
                    "default_setting" : true,
                    "image" : "\ud83d\udd07",
                    "case_str" : "Server Mute",
                    "audit_type" : "overwrite_update"
                },
                "vunmute" : {
                    "default_setting" : false,
                    "image" : "\ud83d\udd08",
                    "case_str" : "Voice Unmute",
                    "audit_type" : "overwrite_update"
                },
                "cunmute" : {
                    "default_setting" : false,
                    "image" : "\ud83d\udd08",
                    "case_str" : "Channel Unmute",
                    "audit_type" : "overwrite_update"
                },
                "sunmute" : {
                    "default_setting" : true,
                    "image" : "\ud83d\udd08",
                    "case_str" : "Server Unmute",
                    "audit_type" : "overwrite_update"
                },
                "filterban" : {
                    "default_setting" : false,
                    "image" : ":filing_cabinet: :hammer:",
                    "case_str" : "Filter ban",
                    "audit_type" : "ban"
                }
            }
        },
        "GUILD" : {
            "466300922767736844" : {
                "mod_log" : 466344271948152842,
                "cases" : {
                    "1" : {
                        "case_number" : 1,
                        "action_type" : "ban",
                        "guild" : 466300922767736844,
                        "created_at" : 1550199518,
                        "user" : 326344795670970368,
                        "moderator" : 118769857750761473,
                        "reason" : null,
                        "until" : null,
                        "channel" : null,
                        "amended_by" : null,
                        "modified_at" : null,
                        "message" : 545801085906845697
                    },
                    "2" : {
                        "case_number" : 2,
                        "action_type" : "ban",
                        "guild" : 466300922767736844,
                        "created_at" : 1550218044,
                        "user" : 463261138931417098,
                        "moderator" : 118769857750761473,
                        "reason" : null,
                        "until" : null,
                        "channel" : null,
                        "amended_by" : null,
                        "modified_at" : null,
                        "message" : 545878789574361091
                    },
                    "3" : {
                        "case_number" : 3,
                        "action_type" : "ban",
                        "guild" : 466300922767736844,
                        "created_at" : 1550459970,
                        "user" : 544613119918604339,
                        "moderator" : 118769857750761473,
                        "reason" : null,
                        "until" : null,
                        "channel" : null,
                        "amended_by" : null,
                        "modified_at" : null,
                        "message" : 546893498482294790
                    },
                    "4" : {
                        "case_number" : 4,
                        "action_type" : "ban",
                        "guild" : 466300922767736844,
                        "created_at" : 1550560609,
                        "user" : 293005502684856321,
                        "moderator" : 118769857750761473,
                        "reason" : null,
                        "until" : null,
                        "channel" : null,
                        "amended_by" : null,
                        "modified_at" : null,
                        "message" : 547315609919291393
                    },
                    "5" : {
                        "case_number" : 5,
                        "action_type" : "ban",
                        "guild" : 466300922767736844,
                        "created_at" : 1550758846,
                        "user" : 480728434436210688,
                        "moderator" : 118769857750761473,
                        "reason" : null,
                        "until" : null,
                        "channel" : null,
                        "amended_by" : null,
                        "modified_at" : null,
                        "message" : 548147076878434306
                    },
                    "6" : {
                        "case_number" : 6,
                        "action_type" : "ban",
                        "guild" : 466300922767736844,
                        "created_at" : 1550870798,
                        "user" : 548185067944411137,
                        "moderator" : 118769857750761473,
                        "reason" : "Spamming in DM.",
                        "until" : null,
                        "channel" : null,
                        "amended_by" : null,
                        "modified_at" : null,
                        "message" : 548616636572237854
                    },
                    "7" : {
                        "case_number" : 7,
                        "action_type" : "ban",
                        "guild" : 466300922767736844,
                        "created_at" : 1550954271,
                        "user" : 150674742288842761,
                        "moderator" : null,
                        "reason" : null,
                        "until" : null,
                        "channel" : null,
                        "amended_by" : null,
                        "modified_at" : null,
                        "message" : 548966745961136146
                    },
                    "8" : {
                        "case_number" : 8,
                        "action_type" : "ban",
                        "guild" : 466300922767736844,
                        "created_at" : 1551284342,
                        "user" : 479021062441664515,
                        "moderator" : 118769857750761473,
                        "reason" : null,
                        "until" : null,
                        "channel" : null,
                        "amended_by" : null,
                        "modified_at" : null,
                        "message" : 550351167238963208
                    },
                    "9" : {
                        "case_number" : 9,
                        "action_type" : "ban",
                        "guild" : 466300922767736844,
                        "created_at" : 1551536082,
                        "user" : 344470120485093386,
                        "moderator" : 118769857750761473,
                        "reason" : null,
                        "until" : null,
                        "channel" : null,
                        "amended_by" : null,
                        "modified_at" : null,
                        "message" : 551407041701216277
                    },
                    "10" : {
                        "case_number" : 10,
                        "action_type" : "ban",
                        "guild" : 466300922767736844,
                        "created_at" : 1551573657,
                        "user" : 551427595137187860,
                        "moderator" : 118769857750761473,
                        "reason" : null,
                        "until" : null,
                        "channel" : null,
                        "amended_by" : null,
                        "modified_at" : null,
                        "message" : 551564639377555477
                    },
                    "11" : {
                        "case_number" : 11,
                        "action_type" : "ban",
                        "guild" : 466300922767736844,
                        "created_at" : 1551737774,
                        "user" : 272232078173536256,
                        "moderator" : null,
                        "reason" : null,
                        "until" : null,
                        "channel" : null,
                        "amended_by" : null,
                        "modified_at" : null,
                        "message" : 552252997497782272
                    },
                    "12" : {
                        "case_number" : 12,
                        "action_type" : "ban",
                        "guild" : 466300922767736844,
                        "created_at" : 1551903807,
                        "user" : 500800426514448385,
                        "moderator" : null,
                        "reason" : null,
                        "until" : null,
                        "channel" : null,
                        "amended_by" : null,
                        "modified_at" : null,
                        "message" : 552949391007416330
                    },
                    "13" : {
                        "case_number" : 13,
                        "action_type" : "ban",
                        "guild" : 466300922767736844,
                        "created_at" : 1552425472,
                        "user" : 174924099481501697,
                        "moderator" : 155149108183695360,
                        "reason" : "Asking for links to LuckyPatcher",
                        "until" : null,
                        "channel" : null,
                        "amended_by" : null,
                        "modified_at" : null,
                        "message" : 555137412561633291
                    },
                    "14" : {
                        "case_number" : 14,
                        "action_type" : "ban",
                        "guild" : 466300922767736844,
                        "created_at" : 1552620585,
                        "user" : 195702265103908866,
                        "moderator" : 118769857750761473,
                        "reason" : null,
                        "until" : null,
                        "channel" : null,
                        "amended_by" : null,
                        "modified_at" : null,
                        "message" : 555955776238256138
                    },
                    "15" : {
                        "case_number" : 15,
                        "action_type" : "ban",
                        "guild" : 466300922767736844,
                        "created_at" : 1553585794,
                        "user" : 498071774383308811,
                        "moderator" : 118769857750761473,
                        "reason" : null,
                        "until" : null,
                        "channel" : null,
                        "amended_by" : null,
                        "modified_at" : null,
                        "message" : 560004155704606720
                    },
                    "16" : {
                        "case_number" : 16,
                        "action_type" : "ban",
                        "guild" : 466300922767736844,
                        "created_at" : 1554038552,
                        "user" : 468444923193065495,
                        "moderator" : null,
                        "reason" : null,
                        "until" : null,
                        "channel" : null,
                        "amended_by" : null,
                        "modified_at" : null,
                        "message" : 561903159362977813
                    },
                    "17" : {
                        "case_number" : 17,
                        "action_type" : "ban",
                        "guild" : 466300922767736844,
                        "created_at" : 1555640648,
                        "user" : 495480718852358146,
                        "moderator" : 118769857750761473,
                        "reason" : null,
                        "until" : null,
                        "channel" : null,
                        "amended_by" : null,
                        "modified_at" : null,
                        "message" : 568562441596698635
                    },
                    "18" : {
                        "case_number" : 18,
                        "action_type" : "ban",
                        "guild" : 466300922767736844,
                        "created_at" : 1555796889,
                        "user" : 558330019869622272,
                        "moderator" : 118769857750761473,
                        "reason" : null,
                        "until" : null,
                        "channel" : null,
                        "amended_by" : null,
                        "modified_at" : null,
                        "message" : 569217762530951181
                    },
                    "19" : {
                        "case_number" : 19,
                        "action_type" : "ban",
                        "guild" : 466300922767736844,
                        "created_at" : 1556204834,
                        "user" : 570923865681952768,
                        "moderator" : null,
                        "reason" : null,
                        "until" : null,
                        "channel" : null,
                        "amended_by" : null,
                        "modified_at" : null,
                        "message" : 570989205715681280
                    },
                    "20" : {
                        "case_number" : 20,
                        "action_type" : "ban",
                        "guild" : 466300922767736844,
                        "created_at" : 1556751080,
                        "user" : 567050639839068176,
                        "moderator" : 118769857750761473,
                        "reason" : "Don't advertise and DM people without permission on this server, or any other server for that matter.",
                        "until" : null,
                        "channel" : null,
                        "amended_by" : null,
                        "modified_at" : null,
                        "message" : 573219927893475368
                    }
                }
            },
            "541586654419484712" : {
                "mod_log" : 553293113507184650
            }
        }
    }
}